…
Run the code below to see what it does, then
Modify the code to mutate to create:
1. a fruity_caramel variable for candies that have both fruity and caramel ==TRUE

<div class="tutorial-exercise" data-label="mutate" data-caption="Code" data-completion="1" data-diagnostics="1" data-startover="1" data-lines="0">

```text
candy_rankings %>% 
  mutate(nutty_nougat = round((peanutyalmondy + nougat)/2)) %>% 
  select(peanutyalmondy, nougat, nutty_nougat) %>% 
  arrange(desc(nutty_nougat))
```

```
# A tibble: 85 x 3
   peanutyalmondy nougat nutty_nougat
   <lgl>          <lgl>         <dbl>
 1 TRUE           TRUE              1
 2 TRUE           TRUE              1
 3 TRUE           TRUE              1
 4 FALSE          FALSE             0
 5 FALSE          TRUE              0
 6 FALSE          FALSE             0
 7 FALSE          FALSE             0
 8 FALSE          FALSE             0
 9 TRUE           FALSE             0
10 TRUE           FALSE             0
# ... with 75 more rows
```

<script type="application/json" data-opts-chunk="1">{"fig.width":6.5,"fig.height":4.5,"fig.retina":1,"fig.align":"default","fig.keep":"high","fig.show":"asis","warning":true,"error":false,"message":true,"exercise.df_print":"default","exercise.checker":"NULL"}</script></div>
 
 If you only want to keep the new variables, use the transmute verb.
<div class="tutorial-exercise" data-label="transmute" data-caption="Code" data-completion="1" data-diagnostics="1" data-startover="1" data-lines="0">

```text
candy_rankings %>% 
  transmute(nutty_nougat = round((peanutyalmondy + nougat)/2)) %>% 
  arrange(desc(nutty_nougat))
```

```
# A tibble: 85 x 1
   nutty_nougat
          <dbl>
 1            1
 2            1
 3            1
 4            0
 5            0
 6            0
 7            0
 8            0
 9            0
10            0
# ... with 75 more rows
```
…
1. sugar_value - the ratio of sugarpercent to pricepercent
2. caramel_bar -candy with both caramel and bar
3. log_winpercent - normalized winpercent by taking natural log
4. sqrt_sugarpercent - normalize this left-tailed variable
5. sugar_pct - convert from a decimal to a percentage.

<div class="tutorial-exercise" data-label="mutatemore" data-caption="Code" data-completion="1" data-diagnostics="1" data-startover="1" data-lines="0">

```text
candy_rankings %>% 
  mutate(nuttinessperdollar = peanutyalmondy/pricepercent)
```

```
# A tibble: 85 x 14
   competitorname chocolate fruity caramel peanutyalmondy
   <chr>          <lgl>     <lgl>  <lgl>   <lgl>         
 1 100 Grand      TRUE      FALSE  TRUE    FALSE         
 2 3 Musketeers   TRUE      FALSE  FALSE   FALSE         
 3 One dime       FALSE     FALSE  FALSE   FALSE         
 4 One quarter    FALSE     FALSE  FALSE   FALSE         
 5 Air Heads      FALSE     TRUE   FALSE   FALSE         
 6 Almond Joy     TRUE      FALSE  FALSE   TRUE          
 7 Baby Ruth      TRUE      FALSE  TRUE    TRUE          
 8 Boston Baked ~ FALSE     FALSE  FALSE   TRUE          
 9 Candy Corn     FALSE     FALSE  FALSE   FALSE         
10 Caramel Apple~ FALSE     TRUE   TRUE    FALSE         
# ... with 75 more rows, and 9 more variables:
#   nougat <lgl>, crispedricewafer <lgl>, hard <lgl>,
#   bar <lgl>, pluribus <lgl>, sugarpercent <dbl>,
#   pricepercent <dbl>, winpercent <dbl>,
#   nuttinessperdollar <dbl>
```
…
1. descending winpercent

Note that a select command is added to make it easier to see the result. You can also see this in the whole dataset with View()

<div class="tutorial-exercise" data-label="arrange" data-caption="Code" data-completion="1" data-diagnostics="1" data-startover="1" data-lines="0">

```text
candy_rankings %>% 
  arrange(sugarpercent) %>% 
  select(competitorname, sugarpercent)
```

```
# A tibble: 85 x 2
   competitorname        sugarpercent
   <chr>                        <dbl>
 1 One dime                    0.011 
 2 One quarter                 0.011 
 3 Reese's Miniatures          0.0340
 4 Chiclets                    0.046 
 5 Lemonhead                   0.046 
 6 Sour Patch Kids             0.0690
 7 Sour Patch Tricksters       0.0690
 8 Jawbusters                  0.0930
 9 Pixie Sticks                0.0930
10 Warheads                    0.0930
# ... with 75 more rows
```
…
1. pricepercent
2. caramel, nougat, desc(sugarpercent)
3. chocolate, descending winpercent 
4. nougat, peanutyalmondy, pricepercent
5. hard, desc(bar), pluribus

<div class="tutorial-exercise" data-label="arrangemore" data-caption="Code" data-completion="1" data-diagnostics="1" data-startover="1" data-lines="0">

```text
candy_rankings %>% 
  arrange(fruity, desc(sugarpercent))
```

```
# A tibble: 85 x 13
   competitorname chocolate fruity caramel peanutyalmondy
   <chr>          <lgl>     <lgl>  <lgl>   <lgl>         
 1 Reese's stuff~ TRUE      FALSE  FALSE   TRUE          
 2 Milky Way Sim~ TRUE      FALSE  TRUE    FALSE         
 3 Sugar Babies   FALSE     FALSE  TRUE    FALSE         
 4 Candy Corn     FALSE     FALSE  FALSE   FALSE         
 5 Whoppers       TRUE      FALSE  FALSE   FALSE         
 6 Rolo           TRUE      FALSE  TRUE    FALSE         
 7 Peanut butter~ TRUE      FALSE  FALSE   TRUE          
 8 M&M's          TRUE      FALSE  FALSE   FALSE         
 9 100 Grand      TRUE      FALSE  TRUE    FALSE         
10 Milky Way Mid~ TRUE      FALSE  TRUE    FALSE         
# ... with 75 more rows, and 8 more variables:
#   nougat <lgl>, crispedricewafer <lgl>, hard <lgl>,
#   bar <lgl>, pluribus <lgl>, sugarpercent <dbl>,
#   pricepercent <dbl>, winpercent <dbl>
```
…
1. count the number of each species
2. tally the number of observations, and add to dataset with add_tally
3. count the number by eye_color, then add_count to the dataset.
4. count by skin_color and sort
5. count the number by homeworld, and sort

<div class="tutorial-exercise" data-label="countmore" data-caption="Code" data-completion="1" data-diagnostics="1" data-startover="1" data-lines="0">

```text
starwars %>% 
  count(birth_year, sort=TRUE) 
```

```
# A tibble: 37 x 2
   birth_year     n
 *      <dbl> <int>
 1       NA      44
 2       19       2
 3       41.9     2
 4       48       2
 5       52       2
 6       72       2
 7       82       2
 8       92       2
 9        8       1
10       15       1
# ... with 27 more rows
```
…
