Challenge Tutorial for Strings
…
Or would you rather extract or str_view the cases that have the word abscess (can filter for these with str_detect), and hand code based on human interpretation?

This is the kind of situation where NLP can benefit from human assistance, kind of like laparoscopy vs. hand-assisted laparoscopy. You can do most of the work with robots, but a little help from humans goes a long way.

Edit the code block below to

create a variable in rads named abscess_present, and assign 0 to each row as the default

filter the rad dataset with filter(str_select) to filter for only those rows with the word abscess.

Review the results, decide which ones truly have abscesses.

Hand assign these values to 1, as in rad$abscess_present[patid == 73] <- 1

## # A tibble: 2,781 x 6
##    patid code   descr    ordering_doc_id date  rad_text     
##    <dbl> <chr>  <chr>              <dbl> <chr> <chr>        
##  1     2 MR990… MR ABDO…        21506082 1/23… "MR ENTEROGR…
##  2     3 CT741… CT ABDO…        21462872 1/23… "at-containi…
##  3     4 MR990… MR ABDO…        21579132 1/23… "\nseveral t…
##  4     5 MR990… MR ABDO…        21579132 1/23… "MR ENTEROGR…
##  5     8 MR990… MR ABDO…        20322014 1/22… "MR ENTEROGR…
##  6     9 CT741… CT ABDO…        20029941 1/21… "CT SCAN OF …
##  7    10 MR990… MR ABDO…        21503428 1/21… "MR ENTEROGR…
##  8    11 MR990… MR ABDO…        21506082 1/21… "MR ENTEROGR…
##  9    13 CTPOR… CT OFC …        21354742 1/20… "stance of a…
## 10    14 MR990… MR ABDO…        21567340 1/20… "MR ENTEROGR…
## # … with 2,771 more rows

## # A tibble: 1,381 x 6
##    patid code   descr    ordering_doc_id date  rad_text     
##    <dbl> <chr>  <chr>              <dbl> <chr> <chr>        
##  1     2 MR990… MR ABDO…        21506082 1/23… "MR ENTEROGR…
##  2     3 CT741… CT ABDO…        21462872 1/23… "at-containi…
##  3     8 MR990… MR ABDO…        20322014 1/22… "MR ENTEROGR…
##  4     9 CT741… CT ABDO…        20029941 1/21… "CT SCAN OF …
##  5    10 MR990… MR ABDO…        21503428 1/21… "MR ENTEROGR…
##  6    11 MR990… MR ABDO…        21506082 1/21… "MR ENTEROGR…
##  7    15 CT741… CT ABDO…        20392500 1/19… "PROCEDURE: …
##  8    16 CT763… CT 3D R…        21550268 1/19… "PROCEDURE: …
##  9    17 CT741… CT ENTE…        21550268 1/19… "PROCEDURE: …
## 10    20 CT741… CT ABDO…           29167 1/18… "lated to a …
## # … with 1,371 more rows

## # A tibble: 1,156 x 6
##    patid code   descr    ordering_doc_id date  rad_text     
##    <dbl> <chr>  <chr>              <dbl> <chr> <chr>        
##  1     2 MR990… MR ABDO…        21506082 1/23… "MR ENTEROGR…
##  2     4 MR990… MR ABDO…        21579132 1/23… "\nseveral t…
##  3     5 MR990… MR ABDO…        21579132 1/23… "MR ENTEROGR…
##  4    11 MR990… MR ABDO…        21506082 1/21… "MR ENTEROGR…
##  5    16 CT763… CT 3D R…        21550268 1/19… "PROCEDURE: …
##  6    17 CT741… CT ENTE…        21550268 1/19… "PROCEDURE: …
##  7    22 MR990… MR ABDO…        21513520 1/18… "MR of the p…
##  8    26 MR990… MR ABDO…        21510404 1/17… "mal colon a…
##  9    27 MR990… MR ABDO…        21373404 1/17… "MRI ABDOMEN…
## 10    28 CT741… CT ENTE…        20113868 1/17… "CT ENTEROGR…
## # … with 1,146 more rows
…
