…
```r
pivotdx %>% 
  pivot_longer(cols = starts_with("dx"),
               names_to = "dx_num",
               names_prefix = "dx",
               values_to = "diagnosis",
               values_drop_na = TRUE)  ->
tidydx

tidydx
```

```
## # A tibble: 32 x 4
##    studyid name  dx_num diagnosis
##      <int> <fct> <chr>  <fct>    
##  1       1 Alice 1      J15.0    
##  2       1 Alice 2      K51.8    
##  3       1 Alice 3      Z92.25   
##  4       1 Alice 4      D68.69   
##  5       2 Bob   1      J13      
##  6       2 Bob   2      K51.50   
##  7       2 Bob   3      Z92.25   
##  8       2 Bob   4      D68.69   
##  9       2 Bob   5      N17.0    
## 10       2 Bob   6      I82.409  
## # ... with 22 more rows
```
…
```r
library(gapminder)
gapminder <- gapminder::gapminder
gapminder
```

```
## # A tibble: 1,704 x 6
##    country     continent  year lifeExp      pop gdpPercap
##    <fct>       <fct>     <int>   <dbl>    <int>     <dbl>
##  1 Afghanistan Asia       1952    28.8  8425333      779.
##  2 Afghanistan Asia       1957    30.3  9240934      821.
##  3 Afghanistan Asia       1962    32.0 10267083      853.
##  4 Afghanistan Asia       1967    34.0 11537966      836.
##  5 Afghanistan Asia       1972    36.1 13079460      740.
##  6 Afghanistan Asia       1977    38.4 14880372      786.
##  7 Afghanistan Asia       1982    39.9 12881816      978.
##  8 Afghanistan Asia       1987    40.8 13867957      852.
##  9 Afghanistan Asia       1992    41.7 16317921      649.
## 10 Afghanistan Asia       1997    41.8 22227415      635.
## # ... with 1,694 more rows
```

```r
gapminder %>% 
  group_by(country, continent) %>% 
  nest() ->
gap_nested

gap_nested
```

```
## # A tibble: 142 x 3
## # Groups:   country, continent [142]
##    country     continent data             
##    <fct>       <fct>     <list>           
##  1 Afghanistan Asia      <tibble [12 x 4]>
##  2 Albania     Europe    <tibble [12 x 4]>
##  3 Algeria     Africa    <tibble [12 x 4]>
##  4 Angola      Africa    <tibble [12 x 4]>
##  5 Argentina   Americas  <tibble [12 x 4]>
##  6 Australia   Oceania   <tibble [12 x 4]>
##  7 Austria     Europe    <tibble [12 x 4]>
##  8 Bahrain     Asia      <tibble [12 x 4]>
##  9 Bangladesh  Asia      <tibble [12 x 4]>
## 10 Belgium     Europe    <tibble [12 x 4]>
## # ... with 132 more rows
```
…
```r
gap_nested %>% 
  unnest()
```

```
## Warning: `cols` is now required.
## Please use `cols = c(data)`
```

```
## # A tibble: 1,704 x 6
## # Groups:   country, continent [142]
##    country     continent  year lifeExp      pop gdpPercap
##    <fct>       <fct>     <int>   <dbl>    <int>     <dbl>
##  1 Afghanistan Asia       1952    28.8  8425333      779.
##  2 Afghanistan Asia       1957    30.3  9240934      821.
##  3 Afghanistan Asia       1962    32.0 10267083      853.
##  4 Afghanistan Asia       1967    34.0 11537966      836.
##  5 Afghanistan Asia       1972    36.1 13079460      740.
##  6 Afghanistan Asia       1977    38.4 14880372      786.
##  7 Afghanistan Asia       1982    39.9 12881816      978.
##  8 Afghanistan Asia       1987    40.8 13867957      852.
##  9 Afghanistan Asia       1992    41.7 16317921      649.
## 10 Afghanistan Asia       1997    41.8 22227415      635.
## # ... with 1,694 more rows
```
…
```r
starwars %>% 
  slice(15:35)
```

```
## # A tibble: 21 x 14
##    name  height   mass hair_color skin_color eye_color
##    <chr>  <int>  <dbl> <chr>      <chr>      <chr>    
##  1 Gree~    173   74   <NA>       green      black    
##  2 Jabb~    175 1358   <NA>       green-tan~ orange   
##  3 Wedg~    170   77   brown      fair       hazel    
##  4 Jek ~    180  110   brown      fair       blue     
##  5 Yoda      66   17   white      green      brown    
##  6 Palp~    170   75   grey       pale       yellow   
##  7 Boba~    183   78.2 black      fair       brown    
##  8 IG-88    200  140   none       metal      red      
##  9 Bossk    190  113   none       green      red      
## 10 Land~    177   79   black      dark       brown    
## # ... with 11 more rows, and 8 more variables:
## #   birth_year <dbl>, sex <chr>, gender <chr>,
## #   homeworld <chr>, species <chr>, films <list>,
## #   vehicles <list>, starships <list>
```
…
Using the chunk below,
try to 

1. sample 30 records from starwars (without replacement)
2. take a 20% random sample (with replacement)


```r
starwars %>% 
  sample_n(size =30, replace =TRUE)
```

```
## # A tibble: 30 x 14
##    name  height  mass hair_color skin_color eye_color
##    <chr>  <int> <dbl> <chr>      <chr>      <chr>    
##  1 Bigg~    183    84 black      light      brown    
##  2 Plo ~    188    80 none       orange     black    
##  3 Jar ~    196    66 none       orange     orange   
##  4 Sebu~    112    40 none       grey, red  orange   
##  5 Anak~    188    84 blond      fair       blue     
##  6 Lobot    175    79 none       light      blue     
##  7 Lama~    229    88 none       grey       black    
##  8 Joca~    167    NA white      fair       blue     
##  9 Han ~    180    80 brown      fair       brown    
## 10 R5-D4     97    32 <NA>       white, red red      
## # ... with 20 more rows, and 8 more variables:
## #   birth_year <dbl>, sex <chr>, gender <chr>,
## #   homeworld <chr>, species <chr>, films <list>,
## #   vehicles <list>, starships <list>
```
…
#### Filtering your dataframe object
In the code chunk below, examine the local dataset, emerg_dept,
which has counts of ED arrivals, how many breached the UK 4 hour guarantee, and how many got admitted.
Then _select()_ only org_code, attendances, breaches, and admissions.
Then _arrange()_ to have the top attendances at the top,
use _top_n(10)_ to get only the top 10 rows.
Assign this to `data` and print it out

```r
emerg_dept
```

```
## # A tibble: 50 x 6
##    period     org_code type  attendances breaches admissions
##    <date>     <fct>    <fct>       <dbl>    <dbl>      <dbl>
##  1 2018-07-01 RRK      1           32209     6499      11332
##  2 2018-07-01 R1H      1           28357     6294       7986
##  3 2018-07-01 RW6      1           23887     4641       6282
##  4 2018-07-01 R0A      1           22012     4669       6818
##  5 2018-07-01 RDU      1           21043     1941       6519
##  6 2018-07-01 RAL      1           20481     2529       4530
##  7 2018-07-01 RF4      1           19303     4606       5004
##  8 2018-07-01 RWE      1           18890     4861       4522
##  9 2018-07-01 RXF      1           18828     2731       3981
## 10 2018-07-01 RQM      1           18560     1064       4130
## # ... with 40 more rows
```
…
