Chapter 46 ‘fc_view(statin_fc6, what =’fc’)’, | Reproducible Medical Research with R
…
upa_fc6

## $data
## # A tibble: 227 × 15
## # Groups:   group [5]
##       id inclusion_crit exclusion_crit withdrew_consent
##    <int> <chr>          <chr>          <chr>           
##  1     1 Yes            No             No              
##  2     2 Yes            No             No              
##  3     3 Yes            No             No              
##  4     4 Yes            No             No              
##  5     5 Yes            No             No              
##  6     6 Yes            No             No              
##  7     7 Yes            No             No              
##  8     8 Yes            No             No              
##  9     9 Yes            No             No              
## 10    10 Yes            No             No              
## # ℹ 217 more rows
## # ℹ 11 more variables: lost_to_follow_up <chr>,
## #   other_reasons <chr>, group <ord>, completed <chr>,
## #   adverse_event <chr>, lack_of_efficacy <chr>,
## #   other_reason_withdraw <chr>, itt <chr>,
## #   reason_itt <chr>, pp <chr>, reason_pp <chr>
## 
## $fc
…
fatigue_fc6

## $data
## # A tibble: 100 × 18
## # Groups:   group [4]
##       id group            fatigue_0 fatigue_8 inclusion_crit
##    <int> <fct>                <int>     <dbl> <chr>         
##  1     1 Placebo                 15        14 Yes           
##  2     2 Placebo                 17        17 Yes           
##  3     3 Placebo                 18        18 Yes           
##  4     4 Modafinil + Bup…        19        14 Yes           
##  5     5 Placebo                 15        15 Yes           
##  6     6 Modafinil + Pla…        17        14 Yes           
##  7     7 Modafinil + Bup…        19        13 Yes           
##  8     8 Modafinil + Pla…        18        15 Yes           
##  9     9 Modafinil + Bup…        16        10 Yes           
## 10    10 Modafinil + Bup…        18        13 Yes           
## # ℹ 90 more rows
## # ℹ 13 more variables: exclusion_crit <chr>,
## #   withdrew_consent <chr>, lost_to_follow_up <chr>,
## #   other_reasons <chr>, completed <chr>,
## #   adverse_event <chr>, lack_of_efficacy <chr>,
## #   other_reason_withdraw <chr>, itt <chr>,
## #   reason_itt <lgl>, pp <chr>, reason_pp <lgl>, …
## 
## $fc
…
