Chapter 5 Importing Your Data into R | Reproducible Medical Research with R
…
5.3 Bringing in data from other Statistical Programs (SAS, Stata, SPSS) with the {haven} package

It is common to have the occasional collaborator who still uses one of the older proprietary statistical packages. They will send you files with filenames like data.sas7bdat (SAS), data.dta (Stata), or data.sav (SPSS).

The {haven} package makes reding in these data files straightforward.

** Set up with web files**
Copy and run the code chunk below to import a web file for SAS.
The {haven} package provides functions like read_sas(), read_dta() and read_sav() to enable you to read proprietary file formats into R.

url_stem <- "https://raw.githubusercontent.com/higgi13425/rmrwr-book/master/"

haven::read_sas(glue(url_stem, "data/blood_storage.sas7bdat"))

## # A tibble: 316 × 20
##    rbc_age_group median_rbc_age   age    aa fam_hx p_vol
##            <dbl>          <dbl> <dbl> <dbl>  <dbl> <dbl>
##  1             3             25  72.1     0      0  54  
##  2             3             25  73.6     0      0  43.2
##  3             3             25  67.5     0      0 103. 
##  4             2             15  65.8     0      0  46  
##  5             2             15  63.2     0      0  60  
##  6             3             25  65.4     0      0  45.9
##  7             3             25  65.5     1      0  42.6
##  8             1             10  67.1     0      0  40.7
##  9             1             10  63.9     0      0  45  
## 10             2             15  63       1      0  67.6
## # ℹ 306 more rows
## # ℹ 14 more variables: t_vol <dbl>, t_stage <dbl>,
## #   b_gs <dbl>, bn <dbl>, organ_confined <dbl>,
## #   preop_psa <dbl>, preop_therapy <dbl>, units <dbl>,
## #   s_gs <dbl>, any_adj_therapy <dbl>,
## #   adj_rad_therapy <dbl>, recurrence <dbl>, censor <dbl>,
## #   time_to_recurrence <dbl>

Similarly, you can read and write Stata files with read_dta() and write_dta(). Try out the example below.

haven::read_dta(glue(url_stem, "data/blood_storage.dta"))

## # A tibble: 316 × 20
##    rbc_age_group median_rbc_age   age    aa fam_hx p_vol
##            <dbl>          <dbl> <dbl> <dbl>  <dbl> <dbl>
##  1             3             25  72.1     0      0  54  
##  2             3             25  73.6     0      0  43.2
##  3             3             25  67.5     0      0 103. 
##  4             2             15  65.8     0      0  46  
##  5             2             15  63.2     0      0  60  
##  6             3             25  65.4     0      0  45.9
##  7             3             25  65.5     1      0  42.6
##  8             1             10  67.1     0      0  40.7
##  9             1             10  63.9     0      0  45  
## 10             2             15  63       1      0  67.6
## # ℹ 306 more rows
## # ℹ 14 more variables: t_vol <dbl>, t_stage <dbl>,
## #   b_gs <dbl>, bn <dbl>, organ_confined <dbl>,
## #   preop_psa <dbl>, preop_therapy <dbl>, units <dbl>,
## #   s_gs <dbl>, any_adj_therapy <dbl>,
## #   adj_rad_therapy <dbl>, recurrence <dbl>, censor <dbl>,
## #   time_to_recurrence <dbl>

You can also read and write SPSS files with read_sav() and write_sav(). Try out the example below.

haven::read_sav(glue(url_stem, "data/strep_tb.sav"))

## # A tibble: 107 × 13
##    patient_id arm         dose_strep_g dose_PAS_g gender   
##    <chr>      <dbl+lbl>          <dbl>      <dbl> <dbl+lbl>
##  1 0001       2 [Control]            0          0 2 [M]    
##  2 0002       2 [Control]            0          0 1 [F]    
##  3 0003       2 [Control]            0          0 1 [F]    
##  4 0004       2 [Control]            0          0 2 [M]    
##  5 0005       2 [Control]            0          0 1 [F]    
##  6 0006       2 [Control]            0          0 2 [M]    
##  7 0007       2 [Control]            0          0 1 [F]    
##  8 0008       2 [Control]            0          0 2 [M]    
##  9 0009       2 [Control]            0          0 1 [F]    
## 10 0010       2 [Control]            0          0 2 [M]    
## # ℹ 97 more rows
## # ℹ 8 more variables: baseline_condition <dbl+lbl>,
## #   baseline_temp <dbl+lbl>, baseline_esr <dbl+lbl>,
## #   baseline_cavitation <dbl+lbl>,
## #   strep_resistance <dbl+lbl>, radiologic_6m <dbl+lbl>,
## #   rad_num <dbl>, improved <dbl>
…
