…
It is common to have the occasional collaborator who still uses one of the older proprietary statistical packages. They will send you files with filenames like `data.sas7bdat` (SAS), `data.dta` (Stata), or `data.sav` (SPSS).

The {haven} package makes reding in these data files straightforward. 


** Set up **



```r
haven::read_sas(glue(url_stem, "data/blood_storage.sas7bdat"))
```

```
## # A tibble: 316 × 20
##    rbc_age_…¹ media…²   age    aa fam_hx p_vol t_vol t_stage
##         <dbl>   <dbl> <dbl> <dbl>  <dbl> <dbl> <dbl>   <dbl>
##  1          3      25  72.1     0      0  54       3       1
##  2          3      25  73.6     0      0  43.2     3       2
##  3          3      25  67.5     0      0 103.      1       1
##  4          2      15  65.8     0      0  46       1       1
##  5          2      15  63.2     0      0  60       2       1
##  6          3      25  65.4     0      0  45.9     2       1
##  7          3      25  65.5     1      0  42.6     2       1
##  8          1      10  67.1     0      0  40.7     3       1
##  9          1      10  63.9     0      0  45       2       1
## 10          2      15  63       1      0  67.6     2       1
## # … with 306 more rows, 12 more variables: b_gs <dbl>,
## #   bn <dbl>, organ_confined <dbl>, preop_psa <dbl>,
## #   preop_therapy <dbl>, units <dbl>, s_gs <dbl>,
## #   any_adj_therapy <dbl>, adj_rad_therapy <dbl>,
## #   recurrence <dbl>, censor <dbl>,
## #   time_to_recurrence <dbl>, and abbreviated variable
## #   names ¹​rbc_age_group, ²​median_rbc_age
## # ℹ Use `print(n = ...)` to see more rows, and `colnames()` to see all variable names
```
…
