…
You can see a listing of the 1212 general NHS practices in Scotland, and you can imagine that you might want to encrypt some fields (telephone, etc.)  and delete some unneeded ones in this data before sharing it publicly on GitHub.


``` r
library(dplyr)
gp_encrypt = gp %>% 
  select(-c(name, address1, address2, address3)) %>% 
  encrypt(postcode, telephone)

gp_encrypt 
```

```
## # A tibble: 1,212 × 8
##    organisation_code city        county postcode opendate   closedate  telephone
##    <chr>             <chr>       <chr>  <chr>    <date>     <date>     <chr>    
##  1 S10002            DUNDEE      ANGUS  8d41ef0… 1995-05-01 NA         6fe5a725…
##  2 S10017            CRIEFF      PERTH… 359a552… 1996-04-06 NA         30792c57…
##  3 S10036            ABERFELDY   PERTH… 025ff02… 2008-04-01 NA         1dea8be1…
##  4 S10060            ABERFELDY   PERTH… 6cec5d4… 1975-04-01 2008-03-31 539575e3…
##  5 S10106            DUNDEE      ANGUS  62b57aa… 1996-07-08 NA         9d9e7bec…
##  6 S10125            BLAIRGOWRIE PERTH… 5b4a3c2… 1979-10-01 NA         7e159bec…
##  7 S10182            ARBROATH    ANGUS  10553d2… 1977-10-01 NA         5461bbd5…
##  8 S10233            ARBROATH    ANGUS  2aa1890… 1986-08-01 NA         805bd6c4…
##  9 S10286            ARBROATH    ANGUS  879b8cb… 1975-08-01 NA         3872ad83…
## 10 S10322            ARBROATH    ANGUS  13769b1… 1971-10-01 NA         24511c1c…
## # ℹ 1,202 more rows
## # ℹ 1 more variable: practice_type <dbl>
```

You can see that postcode and telephone are now encrypted. You can share this data on GitHub, and collaborators can use the private key to decrypt the data when necessary.

Decryption requires the private key generated using genkeys() and the password set at the time. The password and file are not replaceable so need to be kept safe and secure. The code below will ask you for the password you set when you generated the keys before it provides the decrypted data.


``` r
gp_encrypt %>%  
  decrypt(postcode, telephone)
```

```
## # A tibble: 1,212 × 8
##    organisation_code city        county postcode opendate   closedate  telephone
##    <chr>             <chr>       <chr>  <chr>    <date>     <date>     <chr>    
##  1 S10002            DUNDEE      ANGUS  DD2 5NH  1995-05-01 NA         01382 58…
##  2 S10017            CRIEFF      PERTH… PH7 3SA  1996-04-06 NA         01764 65…
##  3 S10036            ABERFELDY   PERTH… PH15 2BL 2008-04-01 NA         01887 82…
##  4 S10060            ABERFELDY   PERTH… PH15 2BH 1975-04-01 2008-03-31 01887 82…
##  5 S10106            DUNDEE      ANGUS  DD5 1DU  1996-07-08 NA         01382 77…
##  6 S10125            BLAIRGOWRIE PERTH… PH11 8EQ 1979-10-01 NA         01828 63…
##  7 S10182            ARBROATH    ANGUS  DD11 1AD 1977-10-01 NA         01241 43…
##  8 S10233            ARBROATH    ANGUS  DD11 1EN 1986-08-01 NA         01241 87…
##  9 S10286            ARBROATH    ANGUS  DD11 1ES 1975-08-01 NA         01241 87…
## 10 S10322            ARBROATH    ANGUS  DD11 1ES 1971-10-01 NA         01241 87…
## # ℹ 1,202 more rows
## # ℹ 1 more variable: practice_type <dbl>
```
…
# Lookup table object created with name 'lookup'
# Lookup table written to file with name 'lookup.csv'
```



``` r
gp_encrypt
```

```
## # A tibble: 1,212 × 8
##    organisation_code city        county postcode opendate   closedate  telephone
##    <chr>             <chr>       <chr>  <chr>    <date>     <date>     <chr>    
##  1 S10002            DUNDEE      ANGUS  8d41ef0… 1995-05-01 NA         6fe5a725…
##  2 S10017            CRIEFF      PERTH… 359a552… 1996-04-06 NA         30792c57…
##  3 S10036            ABERFELDY   PERTH… 025ff02… 2008-04-01 NA         1dea8be1…
##  4 S10060            ABERFELDY   PERTH… 6cec5d4… 1975-04-01 2008-03-31 539575e3…
##  5 S10106            DUNDEE      ANGUS  62b57aa… 1996-07-08 NA         9d9e7bec…
##  6 S10125            BLAIRGOWRIE PERTH… 5b4a3c2… 1979-10-01 NA         7e159bec…
##  7 S10182            ARBROATH    ANGUS  10553d2… 1977-10-01 NA         5461bbd5…
##  8 S10233            ARBROATH    ANGUS  2aa1890… 1986-08-01 NA         805bd6c4…
##  9 S10286            ARBROATH    ANGUS  879b8cb… 1975-08-01 NA         3872ad83…
## 10 S10322            ARBROATH    ANGUS  13769b1… 1971-10-01 NA         24511c1c…
## # ℹ 1,202 more rows
## # ℹ 1 more variable: practice_type <dbl>
```
…
Now we can compare the original data with the synthetic data by modeling a linear regression for income with each dataset in turn


``` r
orig_model <- lm(income ~ sex + agegr + edu + socprof + marital, data = mydata)
broom::tidy(orig_model)
```

```
## # A tibble: 23 × 5
##    term                        estimate std.error statistic  p.value
##    <chr>                          <dbl>     <dbl>     <dbl>    <dbl>
##  1 (Intercept)                    1149.     106.      10.8  6.63e-27
##  2 sexFEMALE                      -510.      37.4    -13.6  2.74e-41
##  3 agegr25-34                      338.     103.       3.27 1.10e- 3
##  4 agegr35-44                      604.     109.       5.55 3.01e- 8
##  5 agegr45-59                      467.     108.       4.35 1.43e- 5
##  6 agegr60-64                      526.     127.       4.14 3.57e- 5
##  7 agegr65+                        476.     132.       3.62 3.03e- 4
##  8 eduVOCATIONAL/GRAMMAR           108.      55.1      1.97 4.95e- 2
##  9 eduSECONDARY                    414.      53.6      7.72 1.46e-14
## 10 eduPOST-SECONDARY OR HIGHER    1158.      62.4     18.6  1.13e-73
## # ℹ 13 more rows
```


``` r
syn_model <- lm(income ~ sex + agegr + edu + socprof + marital, data = syn_SD)

broom::tidy(syn_model)
```

```
## # A tibble: 23 × 5
##    term                        estimate std.error statistic  p.value
##    <chr>                          <dbl>     <dbl>     <dbl>    <dbl>
##  1 (Intercept)                    1231.     107.      11.5  3.85e-30
##  2 sexFEMALE                      -455.      36.9    -12.3  2.80e-34
##  3 agegr25-34                      164.     104.       1.57 1.17e- 1
##  4 agegr35-44                      502.     111.       4.53 5.97e- 6
##  5 agegr45-59                      381.     109.       3.49 4.94e- 4
##  6 agegr60-64                      500.     130.       3.84 1.28e- 4
##  7 agegr65+                        329.     131.       2.52 1.18e- 2
##  8 eduVOCATIONAL/GRAMMAR           137.      56.0      2.46 1.41e- 2
##  9 eduSECONDARY                    479.      54.3      8.83 1.58e-18
## 10 eduPOST-SECONDARY OR HIGHER    1014.      62.9     16.1  1.11e-56
## # ℹ 13 more rows
```
…
