…
You can see that adding the baseline Gleason score improves the model, as it lowers both AIC and BIC. This is not surprising, as it was a significant predictor.

You can add predicted (fitted) values and residuals for each observation in your dataset with `broom::augment()`


```r
model <- prostate %>% 
  glm(recurrence ~ fam_hx + b_gs,
      data = .,
      family = binomial) 
augment(model)
```

```
## # A tibble: 314 × 10
##    .rownames recurrence fam_hx  b_gs .fitted .resid    .hat
##    <chr>          <dbl>  <dbl> <dbl>   <dbl>  <dbl>   <dbl>
##  1 1                  1      0     3   0.103  1.13  0.0244 
##  2 2                  1      0     2  -1.08   1.66  0.00607
##  3 3                  0      0     3   0.103 -1.22  0.0244 
##  4 4                  0      0     1  -2.26  -0.445 0.00532
##  5 5                  0      0     2  -1.08  -0.764 0.00607
##  6 6                  0      0     1  -2.26  -0.445 0.00532
##  7 7                  0      0     1  -2.26  -0.445 0.00532
##  8 8                  1      0     1  -2.26   2.17  0.00532
##  9 9                  0      0     1  -2.26  -0.445 0.00532
## 10 10                 0      0     2  -1.08  -0.764 0.00607
## # ℹ 304 more rows
## # ℹ 3 more variables: .sigma <dbl>, .cooksd <dbl>,
## #   .std.resid <dbl>
```
…
OK, let’s make some predictions, and convert these to percent probability (0-100 range).


```r
# augment data with fitted predictions and residuals
dm_data_plus <- augment(dm_mod) %>% 
  mutate(pct_prob = 100 * plogis(.fitted)) %>% 
  relocate(diabetes, .fitted, pct_prob) %>% 
  arrange(-.fitted)
dm_data_plus 
```

```
## # A tibble: 392 × 17
##    diabetes .fitted pct_prob .rownames pregnant glucose
##    <fct>      <dbl>    <dbl> <chr>        <dbl>   <dbl>
##  1 pos         5.23     99.5 446              0     180
##  2 neg         3.85     97.9 229              4     197
##  3 pos         3.61     97.4 547              5     187
##  4 pos         3.37     96.7 207              8     196
##  5 pos         3.27     96.3 160             17     163
##  6 neg         3.18     96.0 488              0     173
##  7 pos         3.02     95.3 44               9     171
##  8 pos         2.86     94.6 371              3     173
##  9 neg         2.58     93.0 745             13     153
## 10 pos         2.50     92.4 260             11     155
## # ℹ 382 more rows
## # ℹ 11 more variables: pressure <dbl>, triceps <dbl>,
## #   insulin <dbl>, mass <dbl>, pedigree <dbl>, age <dbl>,
## #   .resid <dbl>, .hat <dbl>, .sigma <dbl>, .cooksd <dbl>,
## #   .std.resid <dbl>
```
…
