…
Note that you can use the *set_names()* function in the {purrr} package to conveniently change variable/column names within a data pipeline, and the *rename()* function in the dplyr package to change particular variable/column names.


```r
licorice %>% 
  purrr::set_names(1:19) %>% 
  dplyr::rename("purple" = 2) %>% 
  # note rename(new_name = old_name)
  tibble()
```

```
## # A tibble: 235 x 19
##      `1` purple   `3`   `4`   `5`   `6`   `7`   `8`   `9`
##    <dbl>  <dbl> <dbl> <dbl> <dbl> <dbl> <dbl> <dbl> <dbl>
##  1     0      3  33.0    67     2     1     0     1     2
##  2     0      2  23.7    76     2     2     0     1     1
##  3     0      2  26.8    58     2     1     0     1     2
##  4     0      2  28.4    59     2     1     0     1     3
##  5     0      1  30.4    73     1     2     0     1     2
##  6     0      2  35.5    61     3     1     0     1     3
##  7     0      3  25.5    66     1     1     0     1     3
##  8     0      2  31.1    61     2     1     0     1     1
##  9     0      3  21.2    83     1     1     0     1     1
## 10     0      3  27.2    69     2     3     0     1     2
## # … with 225 more rows, and 10 more variables: 10 <dbl>,
## #   11 <dbl>, 12 <dbl>, 13 <dbl>, 14 <dbl>, 15 <dbl>,
## #   16 <dbl>, 17 <dbl>, 18 <dbl>, 19 <dbl>
```
…
