…
## 
## [[3]]
## # A tibble: 1 × 2
##   X1    X2                                                  
##   <lgl> <chr>                                               
## 1 NA    This section relies largely or entirely upon a sing…
## 
## [[4]]
## # A tibble: 1 × 2
##   X1    X2                                                  
##   <lgl> <chr>                                               
## 1 NA    This section relies largely or entirely upon a sing…
## 
## [[5]]
## # A tibble: 52 × 17
##    Division `1999` `2000` `2001` `2002` `2003` `2004` `2005`
##    <chr>     <dbl>  <dbl>  <dbl>  <dbl>  <dbl>  <dbl>  <dbl>
##  1 United …   13.6   13.1   13.5   13.9   14.6   14.3   14.6
##  2 Alabama    12     12.5   12.4   12.2   12.5   12     14  
##  3 Alaska     18.3   17.4   14.8   18     17.5   15.3   16.9
##  4 Arizona    19.4   16.4   16.7   16.4   16.4   16.2   19.1
##  5 Arkansas   13.9   14.1   16.4   16.5   17.2   15.9   17.2
##  6 Califor…   19     17.5   18     16.5   17.3   17.5   18  
##  7 Colorado   14.1   12.9   14.6   14.5   15.3   15.2   16.2
##  8 Connect…    7.3    8.9    8.2    8.6    9.4   10.3   10.1
##  9 Delaware    9.7    8.5    8.5    9.2    9.6   13.1   11.6
## 10 Distric…   14     12.8   12.3   13     12.7   12     12.4
## # ℹ 42 more rows
## # ℹ 9 more variables: `2006` <dbl>, `2007` <dbl>,
## #   `2008` <dbl>, `2009` <dbl>, `2010` <dbl>, `2011` <dbl>,
## #   `2012` <dbl>, `2013` <dbl>, `2014` <dbl>
## 
## [[6]]
…
