Chapter 26 Linear Regression and Broom for Tidying Models | Reproducible Medical Research with R
…
26.4 Making Predictions with Your Model

We can use the linear model to make predictions about the individual observations in our data, or in future data.

Let’s start with adding model predictions to each observation in our dataset.
This is often called the training data as it was the data the model was trained on.
You can add predictions (fitted results) to your dataframe with the augment() function from the {broom} package.
We augment this dataframe with the model predictions, and then relocate them to the beginning (leftmost columns) of the tibble.

supra_data_plus <-  augment(supra_model) %>% 
  relocate(onset_sensory, .fitted, .resid) %>% 
  arrange(-.fitted)
supra_data_plus

## # A tibble: 100 × 12
##    onset_sensory .fitted .resid .rownames   age   bmi gender
##            <dbl>   <dbl>  <dbl> <chr>     <dbl> <dbl>  <dbl>
##  1            19    16.5   2.46 52           18  22.1      1
##  2            10    16.5  -6.51 99           19  24.4      1
##  3            14    16.5  -2.50 24           19  25.1      1
##  4             4    16.5 -12.5  6            21  22.0      1
##  5             8    16.3  -8.30 87           28  30.4      1
##  6             9    16.3  -7.27 74           31  21.0      1
##  7             6    16.3 -10.3  19           28  39.8      1
##  8            39    16.2  22.8  39           31  29.6      1
##  9            38    16.2  21.8  48           32  24.4      1
## 10             3    16.2 -13.2  43           32  35.4      1
## # … with 90 more rows, and 5 more variables: group <dbl>,
## #   .hat <dbl>, .sigma <dbl>, .cooksd <dbl>,
## #   .std.resid <dbl>
…
