Chapter 11 The Building Blocks of R: data types, data structures, functions, and packages. | Reproducible Medical Research with R
…
One example of a list occurs in the starwars dataset, which has a
row for each character. The column for which films they have
appeared in is a list column. Each cell contains a character
vectors of varying length, as each character has appeared in
anywhere from 1 to 9 movies (as of 2021).

starwars %>% select(name, films) 

# A tibble: 87 × 2
   name               films    
   <chr>              <list>   
 1 Luke Skywalker     <chr [5]>
 2 C-3PO              <chr [6]>
 3 R2-D2              <chr [7]>
 4 Darth Vader        <chr [4]>
 5 Leia Organa        <chr [5]>
 6 Owen Lars          <chr [3]>
 7 Beru Whitesun lars <chr [3]>
 8 R5-D4              <chr [1]>
 9 Biggs Darklighter  <chr [1]>
10 Obi-Wan Kenobi     <chr [6]>
# … with 77 more rows
…
[[6]]
[1] "Attack of the Clones" "Revenge of the Sith" 
[3] "A New Hope"          

Lists can be a bit clunky to work with, as they nest more than a
single value into a single cell. Sometimes this nested format can be
helpful, and sometimes it is preferable to unnest() the data into
a longer format.

starwars %>% select(name, films)

# A tibble: 87 × 2
   name               films    
   <chr>              <list>   
 1 Luke Skywalker     <chr [5]>
 2 C-3PO              <chr [6]>
 3 R2-D2              <chr [7]>
 4 Darth Vader        <chr [4]>
 5 Leia Organa        <chr [5]>
 6 Owen Lars          <chr [3]>
 7 Beru Whitesun lars <chr [3]>
 8 R5-D4              <chr [1]>
 9 Biggs Darklighter  <chr [1]>
10 Obi-Wan Kenobi     <chr [6]>
# … with 77 more rows

# gives you a hidden list of films
starwars %>% 
  select(name, films) %>% 
  unnest(cols = c(films))

# A tibble: 173 × 2
   name           films                  
   <chr>          <chr>                  
 1 Luke Skywalker The Empire Strikes Back
 2 Luke Skywalker Revenge of the Sith    
 3 Luke Skywalker Return of the Jedi     
 4 Luke Skywalker A New Hope             
 5 Luke Skywalker The Force Awakens      
 6 C-3PO          The Empire Strikes Back
 7 C-3PO          Attack of the Clones   
 8 C-3PO          The Phantom Menace     
 9 C-3PO          Revenge of the Sith    
10 C-3PO          Return of the Jedi     
# … with 163 more rows
…
